{
	"rules": {
		"class-name": true,
		"comment-format": [
			true,
			"check-space"
		],
		"eofline": true,
		"forin": true,
		"indent": [
			true,
			"tabs"
		],
		"label-position": true,
		"max-line-length": [
			true,
			140
		],
		"member-access": false,
		"member-ordering": [
			true,
			"static-before-instance",
			"variables-before-functions"
		],
		"no-arg": true,
		"no-bitwise": true,
		"no-console": [
			true,
			"debug",
			"info",
			"time",
			"timeEnd",
			"trace"
		],
		"no-construct": true,
		"no-debugger": true,
		"no-duplicate-variable": true,
		"no-empty": false,
		"no-eval": true,
		"no-inferrable-types": [true, "ignore-params"],
		"no-shadowed-variable": true,
		"no-string-literal": false,
		"no-switch-case-fall-through": true,
		"no-trailing-whitespace": true,
		"no-unused-expression": true,
		"no-use-before-declare": true,
		"no-var-keyword": true,
		"object-literal-sort-keys": false,
		"one-line": [
			true,
			"check-open-brace",
			"check-catch",
			"check-else",
			"check-whitespace"
		],
		"radix": true,
		"semicolon": [
			"always"
		],
		"triple-equals": [
			true,
			"allow-null-check"
		],
		"typedef-whitespace": [
			true,
			{
				"call-signature": "nospace",
				"index-signature": "nospace",
				"parameter": "nospace",
				"property-declaration": "nospace",
				"variable-declaration": "nospace"
			}
		],
		"variable-name": false,
		"whitespace": [
			true,
			"check-decl",
			"check-operator",
			"check-separator",
			"check-type"
		]
	}
}
